{
  "directory": "./IconLibrary/",
  "targetdir": "../Libraries/",
  "targetlibrary": "Infrastructure Icons",
  "library": [
    {
      "name": "Blank",
      "type": "Icon",
      "url": "",
      "svg": "templates/Blank_template.svg",
      "file": "Lightblue_blank.svg",
      "color": "lightblue"
    },
    {
      "name": "Bare Metal",
      "type": "Icon",
      "url": "https://pnt.redhat.com/pnt/d-13403235/IconRedHatHar...AWhiteRGB.svg",
      "svg": "Icon-Red_Hat-Hardware-Server_A-A-White-RGB.svg",
      "file": "Bare_metal.svg",
      "color": "lightblue"
    },
    {
      "name": "Hypervisor",
      "type": "Icon",
      "url": "https://pnt.redhat.com/pnt/d-14246545/IconRedHatHar...AWhiteRGB.svg",
      "svg": "Icon-Red_Hat-Hardware-Hypervisor-A-White-RGB.svg",
      "file": "Hypervisor.svg",
      "color": "lightblue"
    },
    {
      "name": "Virtual Machine",
      "type": "Icon",
      "url": "https://pnt.redhat.com/pnt/d-13422835/IconRedHatHar...AWhiteRGB.svg",
      "svg": "Icon-Red_Hat-Hardware-Virtual_Server-A-White-RGB.svg",
      "file": "Virtual_machine.svg",
      "color": "lightblue"
    },
    {
      "name": "Cloud",
      "type": "Icon",
      "url": "https://pnt.redhat.com/pnt/d-14327495/IconRedHatSof...AWhiteRGB.svg",
      "svg": "Icon-Red_Hat-Software_and_technologies-Cloud-A-White-RGB.svg",
      "file": "Cloud.svg",
      "color": "lightblue"
    },
    {
      "name": "Private Cloud",
      "type": "Icon",
      "url": "https://pnt.redhat.com/pnt/d-14331645/IconRedHatSof...AWhiteRGB.svg",
      "svg": "Icon-Red_Hat-Software_and_technologies-Cloud_private-A-White-RGB.svg",
      "file": "Private_cloud.svg",
      "color": "lightblue"
    },
    {
      "name": "Multicloud",
      "type": "Icon",
      "url": "https://pnt.redhat.com/pnt/d-15499945/IconRedHatMul...AWhiteRGB.svg",
      "svg": "Icon-Red_Hat-Multi-cloud-A-White-RGB.svg",
      "file": "Multicloud.svg",
      "color": "lightblue"
    },
    {
      "name": "Container",
      "type": "Icon",
      "url": "https://pnt.redhat.com/pnt/d-14342715/IconRedHatSof...AWhiteRGB.svg",
      "svg": "Icon-Red_Hat-Software-Container-A-White-RGB.svg",
      "file": "Container.svg",
      "color": "lightblue"
    },
    {
      "name": "Mobile",
      "type": "Icon",
      "url": "https://pnt.redhat.com/pnt/d-14163515/IconRedHatHar...AWhiteRGB.svg",
      "svg": "Icon-Red_Hat-Hardware-Mobile_Devices-A-White-RGB.svg",
      "file": "Mobile.svg",
      "color": "lightblue"
    },
    {
      "name": "Edge Device",
      "type": "Icon",
      "url": "https://pnt.redhat.com/pnt/p-16337765/Icon-Red_Hat-...White-RGB.svg",
      "svg": "Icon-Red_Hat-Circuit-A-White-RGB.svg",
      "file": "Edge_device.svg",
      "color": "lightblue"
    },
    {
      "name": "Edge",
      "type": "Icon",
      "url": "https://pnt.redhat.com/pnt/d-15467445/IconRedHatSof...AWhiteRGB.svg",
      "svg": "Icon-Red_Hat-Software_and_technologies-Edge-A-White-RGB.svg",
      "file": "Edge.svg",
      "color": "lightblue"
    }
  ]
}
